<?xml version="1.0"?>
<VTKFile type="RectilinearGrid" version="1.0" byte_order="LittleEndian" header_type="UInt64">
  <RectilinearGrid WholeExtent="0 1 0 1 0 1">
  <Piece Extent="0 1 0 1 0 1">
    <PointData>
    </PointData>
    <CellData>
    </CellData>
    <Coordinates>
      <DataArray type="Float64" Name="Array 0x55a81424f3f0" format="binary" RangeMin="-0.7000000001" RangeMax="0.7000000001">
        EAAAAAAAAADWJHRmZmbmv9YkdGZmZuY/
      </DataArray>
      <DataArray type="Float64" Name="Array 0x55a81425d780" format="binary" RangeMin="-0.7000000001" RangeMax="0.7000000001">
        EAAAAAAAAADWJHRmZmbmv9YkdGZmZuY/
      </DataArray>
      <DataArray type="Float64" Name="Array 0x55a8115740f0" format="binary" RangeMin="-0.7000000001" RangeMax="0.7000000001">
        EAAAAAAAAADWJHRmZmbmv9YkdGZmZuY/
      </DataArray>
    </Coordinates>
  </Piece>
  </RectilinearGrid>
</VTKFile>
