<?xml version="1.0" encoding="UTF-8" standalone="no"?>
<svg
   xmlns:dc="http://purl.org/dc/elements/1.1/"
   xmlns:cc="http://creativecommons.org/ns#"
   xmlns:rdf="http://www.w3.org/1999/02/22-rdf-syntax-ns#"
   xmlns:svg="http://www.w3.org/2000/svg"
   xmlns="http://www.w3.org/2000/svg"
   xmlns:sodipodi="http://sodipodi.sourceforge.net/DTD/sodipodi-0.dtd"
   xmlns:inkscape="http://www.inkscape.org/namespaces/inkscape"
   inkscape:version="1.0 (4035a4fb49, 2020-05-01)"
   sodipodi:docname="pipeline_icon.svg"
   id="svg6"
   version="1.1"
   width="24"
   viewBox="0 0 24 24"
   height="24">
  <metadata
     id="metadata12">
    <rdf:RDF>
      <cc:Work
         rdf:about="">
        <dc:format>image/svg+xml</dc:format>
        <dc:type
           rdf:resource="http://purl.org/dc/dcmitype/StillImage" />
      </cc:Work>
    </rdf:RDF>
  </metadata>
  <defs
     id="defs10" />
  <sodipodi:namedview
     inkscape:current-layer="svg6"
     inkscape:window-maximized="1"
     inkscape:window-y="-8"
     inkscape:window-x="-8"
     inkscape:cy="12.07619"
     inkscape:cx="12"
     inkscape:zoom="30.625"
     inkscape:snap-bbox="true"
     showgrid="false"
     id="namedview8"
     inkscape:window-height="1122"
     inkscape:window-width="1920"
     inkscape:pageshadow="2"
     inkscape:pageopacity="0"
     guidetolerance="10"
     gridtolerance="10"
     objecttolerance="10"
     borderopacity="1"
     bordercolor="#666666"
     pagecolor="#ffffff" />
  <path
     id="path2"
     fill="none"
     d="M0 0h24v24H0z" />
  <path
     d="m 12,2.2367347 c -1.342449,0 -2.4408163,1.0983673 -2.4408163,2.4408163 0,1.086261 0.7233433,2.0004446 1.7090483,2.3144851 V 17.007964 c -0.985705,0.314041 -1.7090483,1.228224 -1.7090483,2.314485 0,1.342449 1.0983673,2.440816 2.4408163,2.440816 1.342449,0 2.440816,-1.098367 2.440816,-2.440816 0,-1.086261 -0.723343,-2.000444 -1.709048,-2.314485 V 6.9920361 C 13.717473,6.6779956 14.440816,5.763812 14.440816,4.677551 14.440816,3.335102 13.342449,2.2367347 12,2.2367347 Z"
     style="fill:#d9d9d9;fill-opacity:1;stroke-width:1.22041"
     id="path4" />
</svg>
